pom.xml,/project/groupId,com.jjpa, //build path (root path is : C:/Users/{comName}/.m2/repository/ )
pom.xml,/project/packaging,war
pom.xml,/project/artifactId,dmaManager
pom.xml,/project/version,6.0.0.24
pom.xml,/project/description,DMA 6.0.0.24 pass user to dma5_backend
pom.xml,/project/properties/ui.version, using DMA 5.4.54 : vuejs version 1.23.6 sencha version 1.11.6
pom.xml,/project/properties/ui.description, DMA 5.4.54 :  Upgrade Ui 
pom.xml,/project/properties/mongo.url,##mongo.url##
pom.xml,/project/properties/mongo.port,##mongo.port##
pom.xml,/project/properties/mongo.user,##mongo.user##
pom.xml,/project/properties/mongo.pass,##mongo.pass##
pom.xml,/project/properties/mongo.dbname,##mongo.dbname##
pom.xml,/project/properties/externalApi.dma5_backend,##externalApi.dma5_backend##
pom.xml,/project/properties/externalApi.dma_sg,##externalApi.dma_sg##
pom.xml,/project/properties/maven.build.timestamp.format,yyyy-MM-dd